<?xml version="1.0" encoding="utf-8"?>
<!-- Generator: Adobe Illustrator 22.1.0, SVG Export Plug-In . SVG Version: 6.00 Build 0)  -->
<svg version="1.1" id="Layer_1" xmlns="http://www.w3.org/2000/svg" xmlns:xlink="http://www.w3.org/1999/xlink" x="0px" y="0px"
	 viewBox="0 0 54.3 103.5" style="enable-background:new 0 0 54.3 103.5;" xml:space="preserve">
<style type="text/css">
	.st0{fill:#FFFFFF;}
	.st1{fill:#4D374D;}
	.st2{fill:#B7ADA4;}
	.st3{fill:#CA602B;}
</style>
<path class="st0" d="M50.4,96.7c0,0.9-0.7,1.6-1.8,1.6h-1.8v-3.2h1.8C49.7,95.1,50.4,95.7,50.4,96.7L50.4,96.7z M52.7,96.7
	L52.7,96.7c0-2.2-1.5-3.6-4-3.6h-4.2v10.4h2.3v-3.1h1.7C50.9,100.3,52.7,99.1,52.7,96.7 M42.6,95.2v-2.1H34v2.1h3.2v8.3h2.3v-8.3
	H42.6z M30.4,99.1h-2.8l1.4-3.4L30.4,99.1z M34.6,103.5L30.1,93H28l-4.5,10.5h2.3l1-2.3h4.4l1,2.3H34.6z M19.2,99.1h-2.8l1.4-3.4
	L19.2,99.1z M23.3,103.5L18.9,93h-2.1l-4.5,10.5h2.3l1-2.3H20l1,2.3H23.3z M10.9,103.5V93.1H8.7v6.4l-4.9-6.4H1.7v10.4h2.3v-6.6
	l5,6.6H10.9z"/>
<polygon class="st0" points="27.1,20.6 0,36.6 0,68.4 27.1,84.5 54.3,68.4 54.3,36.6 "/>
<polygon class="st1" points="41.9,60.2 52.7,66.5 52.7,53.9 "/>
<polygon class="st1" points="52.7,51.1 52.7,38.5 41.9,44.8 "/>
<polygon class="st2" points="51.8,37 41.1,30.7 41.1,43.4 "/>
<polygon class="st2" points="38.8,29.3 28,22.9 28,35.6 "/>
<polygon class="st2" points="26.3,22.9 15.6,29.3 26.3,35.6 "/>
<polygon class="st2" points="13.2,43.4 13.2,30.7 2.5,37 "/>
<polygon class="st3" points="1.6,53.9 1.6,66.6 12.4,60.2 "/>
<polygon class="st3" points="13.2,61.6 2.4,68 13.2,74.4 "/>
<polygon class="st3" points="13.2,46.2 2.5,52.5 13.2,58.8 "/>
<polygon class="st3" points="12.4,44.8 1.6,38.4 1.6,51.1 "/>
<polygon class="st3" points="26.3,69.4 15.5,75.7 26.3,82.2 "/>
<polygon class="st3" points="25.6,67.9 14.9,61.6 14.9,74.2 "/>
<polygon class="st3" points="26.3,53.9 15.6,60.2 26.3,66.5 "/>
<polygon class="st3" points="25.6,52.5 14.9,46.2 14.9,58.8 "/>
<polygon class="st2" points="14.9,43.3 25.6,37 14.9,30.7 "/>
<polygon class="st2" points="26.3,38.5 15.6,44.8 26.3,51.1 "/>
<polygon class="st1" points="28,82.2 38.8,75.7 28,69.3 "/>
<polygon class="st1" points="39.4,61.7 28.8,67.9 39.4,74.2 "/>
<polygon class="st1" points="38.7,60.2 28,53.9 28,66.5 "/>
<polygon class="st1" points="39.4,46.2 28.8,52.5 39.4,58.8 "/>
<polygon class="st2" points="28,51.1 38.7,44.8 28,38.4 "/>
<polygon class="st2" points="39.4,30.8 28.8,37 39.4,43.3 "/>
<polygon class="st1" points="41.1,46.1 41.1,58.8 51.9,52.5 "/>
<polygon class="st1" points="41.1,61.6 41.1,74.4 51.9,68 "/>
<path class="st0" d="M46.1,7.1c0,0.4,0.3,0.7,0.7,0.7c0.4,0,0.7-0.3,0.7-0.7c0-0.4-0.3-0.7-0.7-0.7C46.4,6.4,46.1,6.7,46.1,7.1
	 M46.7,4.1c0.4,0,0.7-0.3,0.7-0.7s-0.3-0.7-0.7-0.7c-0.4,0-0.7,0.3-0.7,0.7S46.4,4.1,46.7,4.1 M42.2,7.7h0.9V5.3
	c0-1.1,0.5-1.5,1.4-1.5c0.1,0,0.3,0,0.4,0.1l0-1c-0.1,0-0.3-0.1-0.4-0.1c-0.6,0-1.2,0.4-1.4,0.9h0V2.9h-0.9V7.7z M37.3,4.9
	c0-0.6,0.6-1.4,1.5-1.4c0.9,0,1.4,0.6,1.4,1.4H37.3z M41.1,5.6V5.3c0-1.2-0.7-2.5-2.3-2.5c-1.4,0-2.5,1.1-2.5,2.5
	c0,1.4,1,2.5,2.5,2.5c0.9,0,1.6-0.3,2.1-1l-0.7-0.5C39.9,6.7,39.5,7,38.9,7c-0.8,0-1.6-0.6-1.6-1.4H41.1z M32.9,7
	c-1,0-1.6-0.7-1.6-1.7s0.6-1.7,1.6-1.7c1,0,1.6,0.7,1.6,1.7S33.9,7,32.9,7 M30.4,7.7h0.9V7h0c0.4,0.5,1,0.8,1.7,0.8
	c1.5,0,2.5-1.1,2.5-2.5c0-1.4-1-2.5-2.5-2.5c-0.7,0-1.4,0.3-1.7,0.8h0V0h-0.9V7.7z M21.7,7.7h0.9V5.2c0-1.1,0.6-1.6,1.3-1.6
	c0.9,0,1,0.7,1,1.6v2.5h0.9V5.1c0-0.9,0.3-1.5,1.2-1.5c0.9,0,1,0.7,1,1.4v2.7H29V4.9c0-1.1-0.3-2.1-1.8-2.1c-0.6,0-1.2,0.3-1.5,0.9
	c-0.3-0.6-0.8-0.9-1.5-0.9c-0.9,0-1.5,0.6-1.5,0.9h0V2.9h-0.9V7.7z M16.7,4.9c0-0.6,0.6-1.4,1.5-1.4c0.9,0,1.4,0.6,1.4,1.4H16.7z
	 M20.6,5.6V5.3c0-1.2-0.6-2.5-2.3-2.5c-1.4,0-2.5,1.1-2.5,2.5c0,1.4,1,2.5,2.5,2.5c0.9,0,1.6-0.3,2.1-1l-0.7-0.5
	C19.3,6.7,18.9,7,18.4,7c-0.8,0-1.6-0.6-1.6-1.4H20.6z M7,7.7h1V1.8h0l2.4,5.9h0.7l2.4-5.9h0v5.9h1V0.5h-1.5l-2.3,5.5h0L8.5,0.5H7
	V7.7z"/>
</svg>
