<?xml version="1.0" encoding="UTF-8" standalone="no"?>
<svg width="20px" height="20px" viewBox="0 0 20 20" version="1.1" xmlns="http://www.w3.org/2000/svg" xmlns:xlink="http://www.w3.org/1999/xlink">
    <!-- Generator: Sketch 43.2 (39069) - http://www.bohemiancoding.com/sketch -->
    <title>Print</title>
    <desc>Created with Sketch.</desc>
    <defs></defs>
    <g id="Artboards" stroke="none" stroke-width="1" fill="none" fill-rule="evenodd">
        <g id="Screen-2" transform="translate(-496.000000, -29.000000)" fill-rule="nonzero" fill="#FFFFFF">
            <g id="Topbar">
                <g id="Print" transform="translate(496.000000, 29.000000)">
                    <g id="print">
                        <rect id="Rectangle-path" x="4.03" y="14.98" width="11.95" height="1.99"></rect>
                        <path d="M17.96,9 L16.96,9 L16.96,0.05 L8.61,0.05 L3.03,5.62 L3.03,9 L2.03,9 C0.94,9 0.05,9.9 0.05,11 L0.05,17.97 C0.05,19.06 0.95,19.96 2.04,19.96 L17.97,19.96 C19.06,19.96 19.96,19.06 19.96,17.97 L19.96,11 C19.95,9.9 19.06,9 17.96,9 Z M8.01,3.43 L8.01,5.02 L6.42,5.02 L8.01,3.43 Z M5.02,7.01 L10,7.01 L10,2.04 L14.98,2.04 L14.98,9 L5.02,9 L5.02,7.01 Z M2.04,17.96 L2.04,11 L17.97,11 L17.97,17.97 L2.04,17.97 L2.04,17.96 Z" id="Shape"></path>
                        <circle id="Oval" cx="15.97" cy="12.99" r="1"></circle>
                    </g>
                </g>
            </g>
        </g>
    </g>
</svg>